<?xml version="1.0" encoding="utf-8"?>
<!-- Generator: Adobe Illustrator 19.2.1, SVG Export Plug-In . SVG Version: 6.00 Build 0)  -->
<svg version="1.1" id="Layer_1" xmlns="http://www.w3.org/2000/svg" xmlns:xlink="http://www.w3.org/1999/xlink" x="0px" y="0px"
	 viewBox="0 0 120 120" style="enable-background:new 0 0 120 120;" xml:space="preserve">
<style type="text/css">
	.st0{fill:#FFDE17;}
	.st1{fill:none;}
	.st2{fill:#FFFFFF;}
</style>
<g>
	<path class="st0" d="M4.3,68.5c0-2.4,0-4.8,0-7.2c0.6-2.1,1-4.2,1.8-6.2c3.3-8,9.4-13.1,17.1-16.2c3.6-1.4,5.7-3.4,6.5-7
		c0.4-1.8,1.5-2.3,3.3-2.3c25.6,0.1,51.2,0,76.8,0c0.8,0,1.5,0,2.6,0c-0.6,1.8-1,3.5-1.7,5c-2.5,5.9-6.6,10.4-11.6,14.2
		c-0.8,0.6-1.2,1.1-0.9,2.2c3.1,13.4,3.9,27.1,3.8,40.9c0,4-0.4,8-0.6,12.2c-10.7,0-21.2,0-31.7,0c0,1.2,0,2.3,0,3.4
		c11.8,0,23.5,0,35.2,0c0,4.1,0,8.1,0,12c-29.5,0-58.9,0-88.4,0c0-4,0-7.9,0-12.1c11.2,0,22.3,0,33.4,0c0-1.3,0-2.3,0-3.5
		c-10.1,0-20,0-30.2,0c0-2.1-0.1-4.1,0-6.1c0.1-1.4-0.4-2.3-1.4-3.3c-4-3.7-7.6-7.8-9.8-12.8C6.9,77.5,5.8,72.9,4.3,68.5z
		 M76.9,64.2c-0.6-3-1.3-8.8-2.7-14.4c-1.2-4.6-3.4-8.8-7-12.1c-4.2-3.8-9.2-4-13.2-0.1c-2.2,2.2-4.1,4.9-5.4,7.7
		c-4.3,9.2-5.1,18.9-4,28.9c0.7,6.8,2.6,13.4,6.5,19.2c5.1,7.6,13.1,7.9,18.5,0.5c0.2-0.3,0.5-0.7,0.7-1.1
		C75.3,84.9,76.6,76,76.9,64.2z M23.9,49.9c-5.4,3-8.9,7.4-9.3,13.6c-0.4,6.4,1.8,12.1,5.5,17.3C21.4,70.4,22.6,60.2,23.9,49.9z"/>
	<path class="st1" d="M4.3,68.5c1.4,4.4,2.6,9,4.4,13.3c2.2,5,5.8,9.2,9.8,12.8c1,0.9,1.5,1.9,1.4,3.3c-0.1,1.9,0,3.9,0,6.1
		c10.2,0,20.1,0,30.2,0c0,1.2,0,2.2,0,3.5c-11.1,0-22.2,0-33.4,0c0,4.1,0,8,0,12.1c29.4,0,58.8,0,88.4,0c0-3.9,0-7.9,0-12
		c-11.7,0-23.4,0-35.2,0c0-1.2,0-2.2,0-3.4c10.4,0,21,0,31.7,0c0.2-4.2,0.6-8.2,0.6-12.2c0.2-13.7-0.7-27.4-3.8-40.9
		c-0.3-1.1,0.1-1.6,0.9-2.2c5-3.8,9.2-8.3,11.6-14.2c0.6-1.5,1.1-3.2,1.7-5c-1.1,0-1.9,0-2.6,0c-25.6,0-51.2,0-76.8,0
		c-1.9,0-2.9,0.5-3.3,2.3c-0.8,3.6-2.9,5.6-6.5,7c-7.7,3.1-13.9,8.3-17.1,16.2c-0.8,2-1.2,4.2-1.8,6.2c0-19.8,0-39.7,0-59.5
		c18,0,36,0,54.1,0c-4.5,1.6-6.9,4.7-6.4,9.8c-8,2.3-14.5,6.6-19.2,14.1c18.9,0,37.4,0,56.3,0C84,17.5,76.9,13.1,68.1,11
		c0.2-4.8-2.2-7.6-6.3-9.2c17,0,34.1,0,51.1,0c0,39.4,0,78.8,0,118.2c-36.2,0-72.3,0-108.5,0C4.3,102.8,4.3,85.7,4.3,68.5z"/>
	<path class="st0" d="M61.8,1.8c4.1,1.6,6.6,4.4,6.3,9.2c8.8,2.1,15.9,6.6,21,14.6c-18.9,0-37.4,0-56.3,0
		c4.6-7.5,11.2-11.8,19.2-14.1c-0.5-5.1,1.9-8.2,6.4-9.8C59.5,1.8,60.6,1.8,61.8,1.8z"/>
	<path class="st2" d="M23.9,49.9c-1.3,10.3-2.6,20.5-3.9,31c-3.7-5.2-5.9-10.9-5.5-17.3C15,57.3,18.5,53,23.9,49.9z"/>
	<path class="st0" d="M67.8,52.5c-3.2,0-6.2,0-9.4,0c0,1.7,0,3.2,0,4.9c3,0,6,0,9.2,0c0,1,0,1.9,0,3c-3.1,0-6,0-9.2,0
		c0,1.9,0,3.6,0,5.6c3,0,6,0,9.2,0c0,1,0,1.8,0,2.9c-3,0-6,0-9.2,0c0,2.2,0,4.1,0,6.3c3.1,0,6.1,0,9.2,0c0,1,0,1.9,0,3
		c-3.1,0-6.1,0-9.2,0c0,1.9,0,3.6,0,5.5c3.1,0,6.1,0,9.2,0c0,1,0,1.8,0,2.9c-3,0-6.1,0-9.3,0c0,2.2,0,4.1,0,6.2c-1.1,0-2.1,0-3.1,0
		c0-16.4,0-32.8,0-49.3c0.9,0,1.9,0,3,0c0,1.9,0,3.9,0,6.1c3.2,0,6.2,0,9.4,0C67.7,50.5,67.7,51.3,67.8,52.5z"/>
</g>
</svg>
